%YAML 1.1
%TAG !u! tag:unity3d.com,2011:
--- !u!114 &11400000
MonoBehaviour:
  m_ObjectHideFlags: 0
  m_PrefabParentObject: {fileID: 0}
  m_PrefabInternal: {fileID: 0}
  m_GameObject: {fileID: 0}
  m_Enabled: 1
  m_EditorHideFlags: 0
  m_Script: {fileID: 11500000, guid: bee6f4b1d5d0286479d69c4a76a47fe6, type: 3}
  m_Name: INFO_Tamy
  m_EditorClassIdentifier: 
  ID: 8
  Name: Tamy & Samy
  Description: Ein Ranger aus dem Wald Sonochai
  characterStory: {fileID: 0}
  CharacterIcon: {fileID: 21300000, guid: 85cc87f6bb4bd1a47a036f4d7aa10942, type: 3}
  CharacterArtWork: {fileID: 21300000, guid: 90a0b5ad480f4264d92fec441bf0ff3f, type: 3}
  ModelPrefab: {fileID: 0}
  Controller: {fileID: 0}
  Avatar: {fileID: 0}
  HeightInUnits: 0
  RadiusInUnits: 0
  PhysicalDamage: 0
  Armor: 0
  MovementSpeed: 0
  MaxHealth: 700
  HealthRegeneration: 0
  AutoAttackPrefabs: []
  BasicAttacks:
  - {fileID: 11400000, guid: a1004e962d1616340bba50c6443c0bbf, type: 2}
  - {fileID: 11400000, guid: 3f1bc0bb1a4085f458453143c5d2d93e, type: 2}
  Abilities:
  - {fileID: 11400000, guid: f890f63b5d989dd47ad42178bf7f37a6, type: 2}
  - {fileID: 11400000, guid: dcc23bfc92114674e80018d2e857a69d, type: 2}
  - {fileID: 11400000, guid: 4410cb18ebcd8b3408bddea1f8b4ced0, type: 2}
  - {fileID: 11400000, guid: 2f4bd674b18e35f4da7371db926bc9e4, type: 2}
